<?xml version="1.0" encoding="UTF-8" standalone="no"?>
<svg
   xmlns:dc="http://purl.org/dc/elements/1.1/"
   xmlns:cc="http://creativecommons.org/ns#"
   xmlns:rdf="http://www.w3.org/1999/02/22-rdf-syntax-ns#"
   xmlns:svg="http://www.w3.org/2000/svg"
   xmlns="http://www.w3.org/2000/svg"
   xmlns:xlink="http://www.w3.org/1999/xlink"
   xmlns:sodipodi="http://sodipodi.sourceforge.net/DTD/sodipodi-0.dtd"
   xmlns:inkscape="http://www.inkscape.org/namespaces/inkscape"
   height="48"
   viewBox="0 0 48 48"
   width="48"
   id="svg2"
   version="1.1"
   inkscape:version="0.91 r13725"
   sodipodi:docname="toggle_torch.svg"
   inkscape:export-filename="/home/miller/Workspace/pontomais/app/plugins/phonegap-plugin-barcodescanner/src/android/barcodescanner-release-2.1.5/res/drawable/toggle_torch.png"
   inkscape:export-xdpi="90"
   inkscape:export-ydpi="90"
   style="fill:#000000">
  <metadata
     id="metadata14">
    <rdf:RDF>
      <cc:Work
         rdf:about="">
        <dc:format>image/svg+xml</dc:format>
        <dc:type
           rdf:resource="http://purl.org/dc/dcmitype/StillImage" />
        <dc:title></dc:title>
      </cc:Work>
    </rdf:RDF>
  </metadata>
  <sodipodi:namedview
     pagecolor="#ffffff"
     bordercolor="#666666"
     borderopacity="1"
     objecttolerance="10"
     gridtolerance="10"
     guidetolerance="10"
     inkscape:pageopacity="0"
     inkscape:pageshadow="2"
     inkscape:window-width="1313"
     inkscape:window-height="744"
     id="namedview12"
     showgrid="false"
     inkscape:zoom="9.8333333"
     inkscape:cx="12.687438"
     inkscape:cy="22.96966"
     inkscape:window-x="1973"
     inkscape:window-y="24"
     inkscape:window-maximized="1"
     inkscape:current-layer="svg2" />
  <defs
     id="defs4">
    <path
       d="M 0,0 24,0 24,24 0,24 0,0 Z"
       id="a"
       inkscape:connector-curvature="0" />
  </defs>
  <clipPath
     id="b">
    <use
       overflow="visible"
       xlink:href="#a"
       id="use8"
       style="overflow:visible"
       x="0"
       y="0"
       width="100%"
       height="100%" />
  </clipPath>
  <path
     clip-path="url(#b)"
     d="m 6,14 3,3 0,5 6,0 0,-5 3,-3 0,-5 -12,0 z m 5,-12 2,0 0,3 -2,0 z M 3.5,5.875 4.914,4.46 7.034,6.582 5.62,7.997 Z m 13.46,0.71 2.123,-2.12 1.414,1.414 L 18.375,8 Z"
     id="path10"
     style="fill:#000000"
     inkscape:connector-curvature="0"
     transform="matrix(1.25,0,0,1.25,9.001875,9)"
     inkscape:export-filename="/home/miller/Workspace/pontomais/app/plugins/phonegap-plugin-barcodescanner/src/android/barcodescanner-release-2.1.5/res/drawable/toggle_torch.png"
     inkscape:export-xdpi="180"
     inkscape:export-ydpi="180" />
  <rect
     style="fill:none;fill-opacity:1"
     id="rect4142"
     width="24"
     height="24"
     x="0"
     y="24" />
</svg>
